[
    {'property':
        {
            'type': 'Property',
            'name': 'GET_Ack_Response',
            'base_type': 'string',
            'read_only': True,
            'direction': 'output',
            'scope': 'user',
            'data_updated_at': '2019-10-04T21:47:47Z',
            'key': 17480015,
            'device_key': 5373468,
            'product_name': 'F751',
            'track_only_changes': False,
            'display_name': 'Ack Response',
            'host_sw_version': False,
            'time_series': False,
            'derived': False,
            'app_type': None,
            'recipe': None,
            'value': '',
            'denied_roles': [],
            'ack_enabled': False,
            'retention_days': 30
        }
     },
    {'property':
        {
            'type': 'Property',
            'name': 'GET_Battery_Capacity',
            'base_type': 'integer',
            'read_only': True,
            'direction': 'output',
            'scope': 'user',
            'data_updated_at': '2019-10-31T07:09:22Z',
            'key': 17479993,
            'device_key': 5373468,
            'product_name': 'F751',
            'track_only_changes': False,
            'display_name': 'Battery Capacity',
            'host_sw_version': False,
            'time_series': False,
            'derived': False,
            'app_type': None,
            'recipe': None,
            'value': 100,
            'denied_roles': [],
            'ack_enabled': False,
            'retention_days': 30,
            'ack_status': None,
            'ack_message': None,
            'acked_at': None
        }
     },
    {'property':
        {
            'type': 'Property',
            'name': 'GET_Battery_Serial_Num',
            'base_type': 'string',
            'read_only': True,
            'direction': 'output',
            'scope': 'user',
            'data_updated_at': '2019-10-31T07:09:22Z',
            'key': 17474397,
            'device_key': 5373468,
            'product_name': 'F751',
            'track_only_changes': True,
            'display_name': 'Battery Serial Number',
            'host_sw_version': False, 'time_series': False, 'derived': False, 'app_type': None, 'recipe': None, 'value': '', 'denied_roles': [], 'ack_enabled': False, 'retention_days': 30, 'ack_status': None, 'ack_message': None, 'acked_at': None}}, 
        {'property': 
            {'type': 'Property', 
            'name': 'GET_Charging_Status', 'base_type': 'boolean', 'read_only': True, 'direction': 'output', 'scope': 'user', 'data_updated_at': '2019-10-31T07:09:23Z', 'key': 17479994, 'device_key': 5373468, 'product_name': 'F751', 'track_only_changes': False, 'display_name': 'Charging Status', 'host_sw_version': False, 'time_series': False, 'derived': False, 'app_type': None, 'recipe': None, 'value': 1, 'denied_roles': [], 'ack_enabled': False, 'retention_days': 30, 'ack_status': None, 'ack_message': None, 'acked_at': None
            }
        }, 
        {'property': {'type': 'Property', 'name': 'GET_Cleaning_Statistics', 'base_type': 'file', 'read_only': True, 'direction': 'output', 'scope': 'user', 'data_updated_at': '2019-08-20T21:47:23Z', 'key': 17480018, 'device_key': 5373468, 'product_name': 'F751', 'track_only_changes': False, 'display_name': 'Cleaning Statistics', 'host_sw_version': False, 'time_series': False, 'derived': False, 'app_type': None, 'recipe': None, 'value': 'https://ads-devkube.aylanetworks.com/apiv1/devices/5373468/properties/GET_Cleaning_Statistics/datapoints/17adcfdc-c394-11e9-d4c1-42e138f5d396.json', 'denied_roles': [], 'ack_enabled': False, 'retention_days': 30}}, {'property': {'type': 'Property', 'name': 'GET_Default_Floor', 'base_type': 'integer', 'read_only': True, 'direction': 'output', 'scope': 'user', 'data_updated_at': 'null', 'key': 17480027, 'device_key': 5373468, 'product_name': 'F751', 'track_only_changes': False, 'display_name': 'Default Floor Robot', 'host_sw_version': False, 'time_series': False, 'derived': False, 'app_type': None, 'recipe': None, 'value': None, 'denied_roles': [], 'ack_enabled': False, 'retention_days': 30}}, {'property': {'type': 'Property', 'name': 'GET_Device_Model_Number', 'base_type': 'string', 'read_only': True, 'direction': 'output', 'scope': 'user', 'data_updated_at': '2019-10-31T07:09:22Z', 'key': 17474421, 'device_key': 5373468, 'product_name': 'F751', 'track_only_changes': False, 'display_name': 'Device Model Number', 'host_sw_version': False, 'time_series': False, 'derived': False, 'app_type': None, 'recipe': None, 'value': '', 'denied_roles': [], 'ack_enabled': False, 'retention_days': 30}}, {'property': {'type': 'Property', 'name': 'GET_Device_Serial_Num', 'base_type': 'string', 'read_only': True, 'direction': 'output', 'scope': 'user', 'data_updated_at': '2019-10-31T07:09:22Z', 'key': 17474399, 'device_key': 5373468, 'product_name': 'F751', 'track_only_changes': True, 'display_name': 'Device Serial Number', 'host_sw_version': False, 'time_series': False, 'derived': False, 'app_type': None, 'recipe': None, 'value': '', 'denied_roles': [], 'ack_enabled': False, 'retention_days': 30, 'ack_status': None, 'ack_message': None, 'acked_at': None}}, {'property': {'type': 'Property', 'name': 'GET_DND_Time_Setting', 'base_type': 'string', 'read_only': True, 'direction': 'output', 'scope': 'user', 'data_updated_at': 'null', 'key': 17480042, 'device_key': 5373468, 'product_name': 'F751', 'track_only_changes': False, 'display_name': 'DND TIme Setting', 'host_sw_version': False, 'time_series': False, 'derived': False, 'app_type': None, 'recipe': None, 'value': None, 'denied_roles': [], 'ack_enabled': False, 'retention_days': 30}}, {'property': {'type': 'Property', 'name': 'GET_Error_Code', 'base_type': 'integer', 'read_only': True, 'direction': 'output', 'scope': 'user', 'data_updated_at': '2019-10-31T07:09:23Z', 'key': 17479995, 'device_key': 5373468, 'product_name': 'F751', 'track_only_changes': True, 'display_name': 'Error Code', 'host_sw_version': False, 'time_series': False, 'derived': False, 'app_type': None, 'recipe': None, 'value': 0, 'denied_roles': [], 'ack_enabled': False, 'retention_days': 30, 'ack_status': None, 'ack_message': None, 'acked_at': None}}, {'property': {'type': 'Property', 'name': 'GET_Exec_Response', 'base_type': 'string', 'read_only': True, 'direction': 'output', 'scope': 'user', 'data_updated_at': 'null', 'key': 17480044, 'device_key': 5373468, 'product_name': 'F751', 'track_only_changes': False, 'display_name': 'Exec Response', 'host_sw_version': False, 'time_series': False, 'derived': False, 'app_type': None, 'recipe': None, 'value': None, 'denied_roles': [], 'ack_enabled': False, 'retention_days': 30}}, {'property': {'type': 'Property', 'name': 'GET_Extended_Error_Code', 'base_type': 'string', 'read_only': True, 'direction': 'output', 'scope': 'user', 'data_updated_at': '2019-10-31T20:09:33Z', 'key': 17480025, 'device_key': 5373468, 'product_name': 'F751', 'track_only_changes': False, 'display_name': 'Extended Error Code', 'host_sw_version': False, 'time_series': False, 'derived': False, 'app_type': None, 'recipe': None, 'value': '<[VD-reset] secmid: 58169 2> ', 'denied_roles': [], 'ack_enabled': False, 'retention_days': 30}}, {'property': {'type': 'Property', 'name': 'GET_Main_PCB_BL_Version', 'base_type': 'string', 'read_only': True, 'direction': 'output', 'scope': 'user', 'data_updated_at': '2019-10-31T07:09:23Z', 'key': 17474428, 'device_key': 5373468, 'product_name': 'F751', 'track_only_changes': False, 'display_name': 'Main PCB Bootloader Version', 'host_sw_version': False, 'time_series': False, 'derived': False, 'app_type': None, 'recipe': None, 'value': 'ValleyB0.1.1', 'denied_roles': [], 'ack_enabled': False, 'retention_days': 30}}, {'property': {'type': 'Property', 'name': 'GET_Main_PCB_FW_Version', 'base_type': 'string', 'read_only': True, 'direction': 'output', 'scope': 'user', 'data_updated_at': '2019-10-31T07:09:23Z', 'key': 17474403, 'device_key': 5373468, 'product_name': 'F751', 'track_only_changes': False, 'display_name': 'Main PCB Firmware Version', 'host_sw_version': False, 'time_series': False, 'derived': False, 'app_type': None, 'recipe': None, 'value': 'ValleyM1.8.13', 'denied_roles': [], 'ack_enabled': False, 'retention_days': 30, 'ack_status': None, 'ack_message': None, 'acked_at': None}}, {'property': {'type': 'Property', 'name': 'GET_Main_PCB_HW_Version', 'base_type': 'string', 'read_only': True, 'direction': 'output', 'scope': 'user', 'data_updated_at': '2019-10-31T07:09:23Z', 'key': 17474404, 'device_key': 5373468, 'product_name': 'F751', 'track_only_changes': False, 'display_name': 'Main PCB Hardware Version', 'host_sw_version': False, 'time_series': False, 'derived': False, 'app_type': None, 'recipe': None, 'value': 'ValleyH17kp18', 'denied_roles': [], 'ack_enabled': False, 'retention_days': 30, 'ack_status': None, 'ack_message': None, 'acked_at': None}}, {'property': {'type': 'Property', 'name': 'Get_Module_debug', 'base_type': 'integer', 'read_only': True, 'direction': 'output', 'scope': 'user', 'data_updated_at': 'null', 'key': 17479999, 'device_key': 5373468, 'product_name': 'F751', 'track_only_changes': False, 'display_name': 'Get Module Debug', 'host_sw_version': False, 'time_series': False, 'derived': False, 'app_type': None, 'recipe': None, 'value': None, 'denied_roles': [], 'ack_enabled': False, 'retention_days': 30}}, {'property': {'type': 'Property', 'name': 'GET_Nav_Module_App_Version', 'base_type': 'string', 'read_only': True, 'direction': 'output', 'scope': 'user', 'data_updated_at': '2019-10-31T07:09:24Z', 'key': 17474443, 'device_key': 5373468, 'product_name': 'F751', 'track_only_changes': False, 'display_name': 'Nav Module App Version', 'host_sw_version': False, 'time_series': False, 'derived': False, 'app_type': None, 'recipe': None, 'value': 'V3.6.17-1409-Sep 24 2019', 'denied_roles': [], 'ack_enabled': False, 'retention_days': 30}}, {'property': {'type': 'Property', 'name': 'GET_Nav_Module_BL_Version', 'base_type': 'string', 'read_only': True, 'direction': 'output', 'scope': 'user', 'data_updated_at': '2019-10-31T07:09:22Z', 'key': 17474434, 'device_key': 5373468, 'product_name': 'F751', 'track_only_changes': False, 'display_name': 'Nav Module BL Version', 'host_sw_version': False, 'time_series': False, 'derived': False, 'app_type': None, 'recipe': None, 'value': 'V1.26.05.48\n', 'denied_roles': [], 'ack_enabled': False, 'retention_days': 30}}, {'property': {'type': 'Property', 'name': 'GET_Nav_Module_FW_Version', 'base_type': 'string', 'read_only': True, 'direction': 'output', 'scope': 'user', 'data_updated_at': '2019-10-31T07:09:24Z', 'key': 17474432, 'device_key': 5373468, 'product_name': 'F751', 'track_only_changes': False, 'display_name': 'Nav Module Firmware Version', 'host_sw_version': False, 'time_series': False, 'derived': False, 'app_type': None, 'recipe': None, 'value': 'V3.4.10-20190826', 'denied_roles': [], 'ack_enabled': False, 'retention_days': 30}}, {'property': {'type': 'Property', 'name': 'GET_Nav_Module_HW_Version', 'base_type': 'string', 'read_only': True, 'direction': 'output', 'scope': 'user', 'data_updated_at': '2019-10-31T07:09:24Z', 'key': 17474433, 'device_key': 5373468, 'product_name': 'F751', 'track_only_changes': False, 'display_name': 'Nav Module Hardware Version', 'host_sw_version': False, 'time_series': False, 'derived': False, 'app_type': None, 'recipe': None, 'value': '', 'denied_roles': [], 'ack_enabled': False, 'retention_days': 30}}, {'property': {'type': 'Property', 'name': 'GET_Operating_Mode', 'base_type': 'integer', 'read_only': True, 'direction': 'output', 'scope': 'user', 'data_updated_at': '2019-10-31T07:09:23Z', 'key': 17480003, 'device_key': 5373468, 'product_name': 'F751', 'track_only_changes': False, 'display_name': 'Operating Mode', 'host_sw_version': False, 'time_series': False, 'derived': False, 'app_type': None, 'recipe': None, 'value': 3, 'denied_roles': [], 'ack_enabled': False, 'retention_days': 30, 'ack_status': None, 'ack_message': None, 'acked_at': None}}, {'property': {'type': 'Property', 'name': 'GET_Operational_Error_Log', 'base_type': 'file', 'read_only': True, 'direction': 'output', 'scope': 'user', 'data_updated_at': 'null', 'key': 17480019, 'device_key': 5373468, 'product_name': 'F751', 'track_only_changes': False, 'display_name': 'Operational Error Log', 'host_sw_version': False, 'time_series': False, 'derived': False, 'app_type': None, 'recipe': None, 'value': None, 'denied_roles': [], 'ack_enabled': False, 'retention_days': 30}}, {'property': {'type': 'Property', 'name': 'GET_OTA_Progress', 'base_type': 'string', 'read_only': True, 'direction': 'output', 'scope': 'user', 'data_updated_at': 'null', 'key': 17480011, 'device_key': 5373468, 'product_name': 'F751', 'track_only_changes': False, 'display_name': 'OTA Progress', 'host_sw_version': False, 'time_series': False, 'derived': False, 'app_type': None, 'recipe': None, 'value': None, 'denied_roles': [], 'ack_enabled': False, 'retention_days': 30}}, {'property': {'type': 'Property', 'name': 'GET_PbFloor_Confidence', 'base_type': 'integer', 'read_only': True, 'direction': 'output', 'scope': 'user', 'data_updated_at': '2019-10-04T21:19:35Z', 'key': 17480046, 'device_key': 5373468, 'product_name': 'F751', 'track_only_changes': False, 'display_name': 'PbFloor Confidence', 'host_sw_version': False, 'time_series': False, 'derived': False, 'app_type': None, 'recipe': None, 'value': -1, 'denied_roles': [], 'ack_enabled': False, 'retention_days': 30}}, {'property': {'type': 'Property', 'name': 'GET_Persistent_Floor_1', 'base_type': 'file', 'read_only': True, 'direction': 'output', 'scope': 'user', 'data_updated_at': '2019-08-20T21:47:41Z', 'key': 17480033, 'device_key': 5373468, 'product_name': 'F751', 'track_only_changes': False, 'display_name': 'Persistent Floor 1', 'host_sw_version': False, 'time_series': False, 'derived': False, 'app_type': None, 'recipe': None, 'value': 'https://ads-devkube.aylanetworks.com/apiv1/devices/5373468/properties/GET_Persistent_Floor_1/datapoints/228d946e-c394-11e9-b2e5-a97f3448f0e0.json', 'denied_roles': [], 'ack_enabled': False, 'retention_days': 30}}, {'property': {'type': 'Property', 'name': 'GET_Persistent_Floor_2', 'base_type': 'file', 'read_only': True, 'direction': 'output', 'scope': 'user', 'data_updated_at': 'null', 'key': 17480034, 'device_key': 5373468, 'product_name': 'F751', 'track_only_changes': False, 'display_name': 'Persistent Floor 2', 'host_sw_version': False, 'time_series': False, 'derived': False, 'app_type': None, 'recipe': None, 'value': None, 'denied_roles': [], 'ack_enabled': False, 'retention_days': 30}}, {'property': {'type': 'Property', 'name': 'GET_Persistent_Floor_3', 'base_type': 'file', 'read_only': True, 'direction': 'output', 'scope': 'user', 'data_updated_at': 'null', 'key': 17480035, 'device_key': 5373468, 'product_name': 'F751', 'track_only_changes': False, 'display_name': 'Persistent Floor 3', 'host_sw_version': False, 'time_series': False, 'derived': False, 'app_type': None, 'recipe': None, 'value': None, 'denied_roles': [], 'ack_enabled': False, 'retention_days': 30}}, {'property': {'type': 'Property', 'name': 'GET_Power_Mode', 'base_type': 'integer', 'read_only': True, 'direction': 'output', 'scope': 'user', 'data_updated_at': '2019-10-31T07:09:23Z', 'key': 17480013, 'device_key': 5373468, 'product_name': 'F751', 'track_only_changes': False, 'display_name': 'Power Mode', 'host_sw_version': False, 'time_series': False, 'derived': False, 'app_type': None, 'recipe': None, 'value': 0, 'denied_roles': [], 'ack_enabled': False, 'retention_days': 30}}, {'property': {'type': 'Property', 'name': 'GET_Robot_Firmware_Version', 'base_type': 'string', 'read_only': True, 'direction': 'output', 'scope': 'user', 'data_updated_at': '2019-10-31T07:09:22Z', 'key': 17474436, 'device_key': 5373468, 'product_name': 'F751', 'track_only_changes': False, 'display_name': 'Robot Firmware Version', 'host_sw_version': False, 'time_series': False, 'derived': False, 'app_type': None, 'recipe': None, 'value': 'AV3.4.10-20190826PValleyM1.8.13S1.0.95', 'denied_roles': [], 'ack_enabled': False, 'retention_days': 30}}, {'property': {'type': 'Property', 'name': 'GET_Robot_Language_Setting', 'base_type': 'string', 'read_only': True, 'direction': 'output', 'scope': 'user', 'data_updated_at': 'null', 'key': 17480031, 'device_key': 5373468, 'product_name': 'F751', 'track_only_changes': False, 'display_name': 'Robot Language Setting', 'host_sw_version': False, 'time_series': False, 'derived': False, 'app_type': None, 'recipe': None, 'value': None, 'denied_roles': [], 'ack_enabled': False, 'retention_days': 30}}, {'property': {'type': 'Property', 'name': 'GET_Robot_Room_List', 'base_type': 'string', 'read_only': True, 'direction': 'output', 'scope': 'user', 'data_updated_at': '2019-08-21T14:33:26Z', 'key': 17480047, 'device_key': 5373468, 'product_name': 'F751', 'track_only_changes': False, 'display_name': 'Robot Room List', 'host_sw_version': False, 'time_series': False, 'derived': False, 'app_type': None, 'recipe': None, 'value': '67DEBE12:Kitchen:Living Room:Dining Room', 'denied_roles': [], 'ack_enabled': False, 'retention_days': 30}}, {'property': {'type': 'Property', 'name': 'GET_Robot_Volume_Setting', 'base_type': 'integer', 'read_only': True, 'direction': 'output', 'scope': 'user', 'data_updated_at': '2019-10-31T07:09:24Z', 'key': 17480029, 'device_key': 5373468, 'product_name': 'F751', 'track_only_changes': False, 'display_name': 'Robot Volume Setting', 'host_sw_version': False, 'time_series': False, 'derived': False, 'app_type': None, 'recipe': None, 'value': 100, 'denied_roles': [], 'ack_enabled': False, 'retention_days': 30}}, {'property': {'type': 'Property', 'name': 'GET_RSSI', 'base_type': 'integer', 'read_only': True, 'direction': 'output', 'scope': 'user', 'data_updated_at': '2019-10-31T20:40:04Z', 'key': 17480004, 'device_key': 5373468, 'product_name': 'F751', 'track_only_changes': False, 'display_name': 'WiFi Signal Strength', 'host_sw_version': False, 'time_series': False, 'derived': False, 'app_type': None, 'recipe': None, 'value': -45, 'denied_roles': [], 'ack_enabled': False, 'retention_days': 30, 'ack_status': None, 'ack_message': None, 'acked_at': None}}, {'property': {'type': 'Property', 'name': 'GET_SCM_Error_Log', 'base_type': 'file', 'read_only': True, 'direction': 'output', 'scope': 'user', 'data_updated_at': 'null', 'key': 17480032, 'device_key': 5373468, 'product_name': 'F751', 'track_only_changes': False, 'display_name': 'SCM Error Log', 'host_sw_version': False, 'time_series': False, 'derived': False, 'app_type': None, 'recipe': None, 'value': None, 'denied_roles': [], 'ack_enabled': False, 'retention_days': 30}}, {'property': {'type': 'Property', 'name': 'GET_SCM_FW_Version', 'base_type': 'string', 'read_only': True, 'direction': 'output', 'scope': 'user', 'data_updated_at': '2019-10-31T07:09:21Z', 'key': 17474435, 'device_key': 5373468, 'product_name': 'F751', 'track_only_changes': False, 'display_name': 'SCM Firmware Version', 'host_sw_version': False, 'time_series': False, 'derived': False, 'app_type': None, 'recipe': None, 'value': 'S1.0.95', 'denied_roles': [], 'ack_enabled': False, 'retention_days': 30}}, {'property': {'type': 'Property', 'name': 'GET_System_Error_Log', 'base_type': 'file', 'read_only': True, 'direction': 'output', 'scope': 'user', 'data_updated_at': 'null', 'key': 17480020, 'device_key': 5373468, 'product_name': 'F751', 'track_only_changes': False, 'display_name': 'System Error Log', 'host_sw_version': False, 'time_series': False, 'derived': False, 'app_type': None, 'recipe': None, 'value': None, 'denied_roles': [], 'ack_enabled': False, 'retention_days': 30}}, {'property': {'type': 'Property', 'name': 'GET_UBD_Version', 'base_type': 'string', 'read_only': True, 'direction': 'output', 'scope': 'user', 'data_updated_at': 'null', 'key': 17474422, 'device_key': 5373468, 'product_name': 'F751', 'track_only_changes': False, 'display_name': 'UBD Version', 'host_sw_version': False, 'time_series': False, 'derived': False, 'app_type': None, 'recipe': None, 'value': None, 'denied_roles': [], 'ack_enabled': False, 'retention_days': 30}}, {'property': {'type': 'Property', 'name': 'GET_Visual_Floor_1', 'base_type': 'file', 'read_only': True, 'direction': 'output', 'scope': 'user', 'data_updated_at': '2019-08-20T21:47:25Z', 'key': 17480037, 'device_key': 5373468, 'product_name': 'F751', 'track_only_changes': False, 'display_name': 'Visual Floor 1', 'host_sw_version': False, 'time_series': False, 'derived': False, 'app_type': None, 'recipe': None, 'value': 'https://ads-devkube.aylanetworks.com/apiv1/devices/5373468/properties/GET_Visual_Floor_1/datapoints/18cd7b4c-c394-11e9-0656-e4faee74eb8a.json', 'denied_roles': [], 'ack_enabled': False, 'retention_days': 30}}, {'property': {'type': 'Property', 'name': 'GET_Visual_Floor_2', 'base_type': 'file', 'read_only': True, 'direction': 'output', 'scope': 'user', 'data_updated_at': 'null', 'key': 17480038, 'device_key': 5373468, 'product_name': 'F751', 'track_only_changes': False, 'display_name': 'Visual Floor 2', 'host_sw_version': False, 'time_series': False, 'derived': False, 'app_type': None, 'recipe': None, 'value': None, 'denied_roles': [], 'ack_enabled': False, 'retention_days': 30}}, {'property': {'type': 'Property', 'name': 'GET_Visual_Floor_3', 'base_type': 'file', 'read_only': True, 'direction': 'output', 'scope': 'user', 'data_updated_at': 'null', 'key': 17480039, 'device_key': 5373468, 'product_name': 'F751', 'track_only_changes': False, 'display_name': 'Visual Floor 3', 'host_sw_version': False, 'time_series': False, 'derived': False, 'app_type': None, 'recipe': None, 'value': None, 'denied_roles': [], 'ack_enabled': False, 'retention_days': 30}}, {'property': {'type': 'Property', 'name': 'GET_WiFi_FW_Version', 'base_type': 'string', 'read_only': True, 'direction': 'output', 'scope': 'user', 'data_updated_at': 'null', 'key': 17474411, 'device_key': 5373468, 'product_name': 'F751', 'track_only_changes': False, 'display_name': 'WiFi Firmware Version', 'host_sw_version': False, 'time_series': False, 'derived': False, 'app_type': None, 'recipe': None, 'value': None, 'denied_roles': [], 'ack_enabled': False, 'retention_days': 30}}, {'property': {'type': 'Property', 'name': 'GET_WiFi_HW_Version', 'base_type': 'string', 'read_only': True, 'direction': 'output', 'scope': 'user', 'data_updated_at': '2019-10-31T07:09:23Z', 'key': 17474412, 'device_key': 5373468, 'product_name': 'F751', 'track_only_changes': False, 'display_name': 'WiFi Hardware Version', 'host_sw_version': False, 'time_series': False, 'derived': False, 'app_type': None, 'recipe': None, 'value': '', 'denied_roles': [], 'ack_enabled': False, 'retention_days': 30, 'ack_status': None, 'ack_message': None, 'acked_at': None}}, {'property': {'type': 'Property', 'name': 'Mobile_App_Room_Definition', 'base_type': 'file', 'read_only': True, 'direction': 'output', 'scope': 'user', 'data_updated_at': '2019-08-21T14:11:10Z', 'key': 17480040, 'device_key': 5373468, 'product_name': 'F751', 'track_only_changes': False, 'display_name': 'Mobile App Room Definition', 'host_sw_version': False, 'time_series': False, 'derived': False, 'app_type': None, 'recipe': None, 'value': 'https://ads-devkube.aylanetworks.com/apiv1/devices/5373468/properties/Mobile_App_Room_Definition/datapoints/86bcb67a-c41d-11e9-74e7-f87e2483082d.json', 'denied_roles': [], 'ack_enabled': False, 'retention_days': 30}}, {'property': {'type': 'Property', 'name': 'oem_host_version', 'base_type': 'string', 'read_only': True, 'direction': 'output', 'scope': 'oem', 'data_updated_at': '2019-08-20T21:12:55Z', 'key': 17474395, 'device_key': 5373468, 'product_name': 'F751', 'track_only_changes': True, 'display_name': 'oem_host_version', 'host_sw_version': False, 'time_series': False, 'derived': False, 'app_type': None, 'recipe': None, 'value': 'version 0.94', 'denied_roles': [], 'ack_enabled': False, 'retention_days': None, 'ack_status': None, 'ack_message': None, 'acked_at': None}}, {'property': {'type': 'Property', 'name': 'OTA_FW_VERSION', 'base_type': 'string', 'read_only': True, 'direction': 'output', 'scope': 'user', 'data_updated_at': '2019-10-31T07:09:22Z', 'key': 17479997, 'device_key': 5373468, 'product_name': 'F751', 'track_only_changes': True, 'display_name': 'OTA Firmware', 'host_sw_version': True, 'time_series': False, 'derived': False, 'app_type': None, 'recipe': None, 'value': 'V3.4.10-20190826V3.6.17-1409-Sep 24 2019ValleyM1.8.13ValleyB0.1.1S1.0.95', 'denied_roles': [], 'ack_enabled': False, 'retention_days': None, 'ack_status': None, 'ack_message': None, 'acked_at': None}}, {'property': {'type': 'Property', 'name': 'ReplaceBattery', 'base_type': 'boolean', 'read_only': True, 'direction': 'output', 'scope': 'user', 'data_updated_at': 'null', 'key': 17480005, 'device_key': 5373468, 'product_name': 'F751', 'track_only_changes': False, 'display_name': 'Replace Battery Indicator', 'host_sw_version': False, 'time_series': False, 'derived': False, 'app_type': None, 'recipe': None, 'value': None, 'denied_roles': [], 'ack_enabled': False, 'retention_days': 30}}, {'property': {'type': 'Property', 'name': 'ReportPeriodDock', 'base_type': 'integer', 'read_only': False, 'direction': 'input', 'scope': 'user', 'data_updated_at': '2019-10-04T21:47:47Z', 'key': 17480006, 'device_key': 5373468, 'product_name': 'F751', 'track_only_changes': False, 'display_name': 'Report Period Docked (mins)', 'host_sw_version': False, 'time_series': False, 'derived': False, 'app_type': None, 'recipe': None, 'value': 30, 'denied_roles': [], 'ack_enabled': False, 'retention_days': 30}}, {'property': {'type': 'Property', 'name': 'ReportPeriodUndocked', 'base_type': 'integer', 'read_only': False, 'direction': 'input', 'scope': 'user', 'data_updated_at': '2019-10-04T21:47:47Z', 'key': 17480007, 'device_key': 5373468, 'product_name': 'F751', 'track_only_changes': False, 'display_name': 'Report Period Undock (mins)', 'host_sw_version': False, 'time_series': False, 'derived': False, 'app_type': None, 'recipe': None, 'value': 5, 'denied_roles': [], 'ack_enabled': False, 'retention_days': 30}}, {'property': {'type': 'Property', 'name': 'ResetRunTimeCumulative', 'base_type': 'boolean', 'read_only': False, 'direction': 'input', 'scope': 'user', 'data_updated_at': 'null', 'key': 17480010, 'device_key': 5373468, 'product_name': 'F751', 'track_only_changes': False, 'display_name': 'Reset Run Time Cumulative', 'host_sw_version': False, 'time_series': False, 'derived': False, 'app_type': None, 'recipe': None, 'value': None, 'denied_roles': [], 'ack_enabled': False, 'retention_days': 30}}, {'property': {'type': 'Property', 'name': 'RunTimeCumulative', 'base_type': 'integer', 'read_only': True, 'direction': 'output', 'scope': 'user', 'data_updated_at': '2019-10-04T21:19:35Z', 'key': 17480009, 'device_key': 5373468, 'product_name': 'F751', 'track_only_changes': False, 'display_name': 'Run Time Cumulative (mins)', 'host_sw_version': False, 'time_series': False, 'derived': False, 'app_type': None, 'recipe': None, 'value': 21, 'denied_roles': [], 'ack_enabled': False, 'retention_days': 30}}, {'property': {'type': 'Property', 'name': 'RunTimeCycle', 'base_type': 'integer', 'read_only': True, 'direction': 'output', 'scope': 'user', 'data_updated_at': '2019-10-04T21:19:35Z', 'key': 17480008, 'device_key': 5373468, 'product_name': 'F751', 'track_only_changes': False, 'display_name': 'Run Time Last Cycle (mins)', 'host_sw_version': False, 'time_series': False, 'derived': False, 'app_type': None, 'recipe': None, 'value': 0, 'denied_roles': [], 'ack_enabled': False, 'retention_days': 30}}, {'property': {'type': 'Property', 'name': 'SET_Areas_To_Clean', 'base_type': 'string', 'read_only': False, 'direction': 'input', 'scope': 'user', 'data_updated_at': '2019-10-31T07:09:24Z', 'key': 17480036, 'device_key': 5373468, 'product_name': 'F751', 'track_only_changes': False, 'display_name': 'Areas To Clean', 'host_sw_version': False, 'time_series': False, 'derived': False, 'app_type': None, 'recipe': None, 'value': '*', 'denied_roles': [], 'ack_enabled': False, 'retention_days': 30}}, {'property': {'type': 'Property', 'name': 'SET_Default_Floor', 'base_type': 'integer', 'read_only': False, 'direction': 'input', 'scope': 'user', 'data_updated_at': 'null', 'key': 17480028, 'device_key': 5373468, 'product_name': 'F751', 'track_only_changes': False, 'display_name': 'Default Floor User', 'host_sw_version': False, 'time_series': False, 'derived': False, 'app_type': None, 'recipe': None, 'value': None, 'denied_roles': [], 'ack_enabled': False, 'retention_days': 30}}, {'property': {'type': 'Property', 'name': 'SET_DND_Time_Control', 'base_type': 'string', 'read_only': False, 'direction': 'input', 'scope': 'user', 'data_updated_at': 'null', 'key': 17480041, 'device_key': 5373468, 'product_name': 'F751', 'track_only_changes': False, 'display_name': 'DND Time Control', 'host_sw_version': False, 'time_series': False, 'derived': False, 'app_type': None, 'recipe': None, 'value': None, 'denied_roles': [], 'ack_enabled': False, 'retention_days': 30}}, {'property': {'type': 'Property', 'name': 'SET_Enable_RT_Map', 'base_type': 'boolean', 'read_only': False, 'direction': 'input', 'scope': 'user', 'data_updated_at': 'null', 'key': 17480026, 'device_key': 5373468, 'product_name': 'F751', 'track_only_changes': False, 'display_name': 'Enable RT Map', 'host_sw_version': False, 'time_series': False, 'derived': False, 'app_type': None, 'recipe': None, 'value': None, 'denied_roles': [], 'ack_enabled': False, 'retention_days': 30}}, {'property': {'type': 'Property', 'name': 'SET_Exec_Command', 'base_type': 'string', 'read_only': False, 'direction': 'input', 'scope': 'user', 'data_updated_at': 'null', 'key': 17480043, 'device_key': 5373468, 'product_name': 'F751', 'track_only_changes': False, 'display_name': 'Exec Command', 'host_sw_version': False, 'time_series': False, 'derived': False, 'app_type': None, 'recipe': None, 'value': None, 'denied_roles': [], 'ack_enabled': False, 'retention_days': 30}}, {'property': {'type': 'Property', 'name': 'SET_Find_Device', 'base_type': 'boolean', 'read_only': False, 'direction': 'input', 'scope': 'user', 'data_updated_at': '2019-10-31T07:09:22Z', 'key': 17479996, 'device_key': 5373468, 'product_name': 'F751', 'track_only_changes': False, 'display_name': 'Find device', 'host_sw_version': False, 'time_series': False, 'derived': False, 'app_type': None, 'recipe': None, 'value': 0, 'denied_roles': [], 'ack_enabled': False, 'retention_days': 30, 'ack_status': None, 'ack_message': None, 'acked_at': None}}, {'property': {'type': 'Property', 'name': 'Set_Module_Debug', 'base_type': 'boolean', 'read_only': False, 'direction': 'input', 'scope': 'user', 'data_updated_at': 'null', 'key': 17479998, 'device_key': 5373468, 'product_name': 'F751', 'track_only_changes': False, 'display_name': 'Set Module Debug', 'host_sw_version': False, 'time_series': False, 'derived': False, 'app_type': None, 'recipe': None, 'value': None, 'denied_roles': [], 'ack_enabled': False, 'retention_days': 30}}, {'property': {'type': 'Property', 'name': 'SET_Operating_Mode', 'base_type': 'integer', 'read_only': False, 'direction': 'input', 'scope': 'user', 'data_updated_at': '2019-10-31T07:09:23Z', 'key': 17480002, 'device_key': 5373468, 'product_name': 'F751', 'track_only_changes': False, 'display_name': 'Operating Mode', 'host_sw_version': False, 'time_series': False, 'derived': False, 'app_type': None, 'recipe': None, 'value': 3, 'denied_roles': [], 'ack_enabled': False, 'retention_days': 30, 'ack_status': None, 'ack_message': None, 'acked_at': None}}, {'property': {'type': 'Property', 'name': 'SET_Power_Mode', 'base_type': 'integer', 'read_only': False, 'direction': 'input', 'scope': 'user', 'data_updated_at': '2019-10-31T07:09:23Z', 'key': 17480014, 'device_key': 5373468, 'product_name': 'F751', 'track_only_changes': False, 'display_name': 'Power Mode', 'host_sw_version': False, 'time_series': False, 'derived': False, 'app_type': None, 'recipe': None, 'value': 0, 'denied_roles': [], 'ack_enabled': False, 'retention_days': 30}}, {'property': {'type': 'Property', 'name': 'SET_Quiet_Time', 'base_type': 'string', 'read_only': False, 'direction': 'input', 'scope': 'user', 'data_updated_at': 'null', 'key': 17480012, 'device_key': 5373468, 'product_name': 'F751', 'track_only_changes': False, 'display_name': 'Quiet Time', 'host_sw_version': False, 'time_series': False, 'derived': False, 'app_type': None, 'recipe': None, 'value': None, 'denied_roles': [], 'ack_enabled': False, 'retention_days': 30}}, {'property': {'type': 'Property', 'name': 'SET_Recharge_Resume', 'base_type': 'boolean', 'read_only': False, 'direction': 'input', 'scope': 'user', 'data_updated_at': 'null', 'key': 17480021, 'device_key': 5373468, 'product_name': 'F751', 'track_only_changes': False, 'display_name': 'Recharge And Resume', 'host_sw_version': False, 'time_series': False, 'derived': False, 'app_type': None, 'recipe': None, 'value': None, 'denied_roles': [], 'ack_enabled': False, 'retention_days': 30}}, {'property': {'type': 'Property', 'name': 'SET_Reset_Factory_Defaults', 'base_type': 'boolean', 'read_only': False, 'direction': 'input', 'scope': 'user', 'data_updated_at': 'null', 'key': 17480000, 'device_key': 5373468, 'product_name': 'F751', 'track_only_changes': False, 'display_name': 'Reset Factory Defaults', 'host_sw_version': False, 'time_series': False, 'derived': False, 'app_type': None, 'recipe': None, 'value': None, 'denied_roles': [], 'ack_enabled': False, 'retention_days': 30}}, {'property': {'type': 'Property', 'name': 'SET_Reset_WiFi', 'base_type': 'boolean', 'read_only': False, 'direction': 'input', 'scope': 'user', 'data_updated_at': '2019-10-04T21:47:47Z', 'key': 17480001, 'device_key': 5373468, 'product_name': 'F751', 'track_only_changes': False, 'display_name': 'Reset WiFi Settings', 'host_sw_version': False, 'time_series': False, 'derived': False, 'app_type': None, 'recipe': None, 'value': 0, 'denied_roles': [], 'ack_enabled': False, 'retention_days': 30, 'ack_status': None, 'ack_message': None, 'acked_at': None}}, {'property': {'type': 'Property', 'name': 'SET_Robot_Language_Control', 'base_type': 'string', 'read_only': False, 'direction': 'input', 'scope': 'user', 'data_updated_at': 'null', 'key': 17480030, 'device_key': 5373468, 'product_name': 'F751', 'track_only_changes': False, 'display_name': 'Robot Language Control', 'host_sw_version': False, 'time_series': False, 'derived': False, 'app_type': None, 'recipe': None, 'value': None, 'denied_roles': [], 'ack_enabled': False, 'retention_days': 30}}, {'property': {'type': 'Property', 'name': 'SET_Robot_Volume_Control', 'base_type': 'integer', 'read_only': False, 'direction': 'input', 'scope': 'user', 'data_updated_at': '2019-10-31T07:09:23Z', 'key': 17480022, 'device_key': 5373468, 'product_name': 'F751', 'track_only_changes': False, 'display_name': 'Robot Volume Control', 'host_sw_version': False, 'time_series': False, 'derived': False, 'app_type': None, 'recipe': None, 'value': 100, 'denied_roles': [], 'ack_enabled': False, 'retention_days': 30}}, {'property': {'type': 'Property', 'name': 'SET_Room_Definition', 'base_type': 'file', 'read_only': False, 'direction': 'input', 'scope': 'user', 'data_updated_at': 'null', 'key': 17480023, 'device_key': 5373468, 'product_name': 'F751', 'track_only_changes': False, 'display_name': 'Room Definition', 'host_sw_version': False, 'time_series': False, 'derived': False, 'app_type': None, 'recipe': None, 'value': None, 'denied_roles': [], 'ack_enabled': False, 'retention_days': 30}}, {'property': {'type': 'Property', 'name': 'SET_Send_Error_Logs', 'base_type': 'boolean', 'read_only': False, 'direction': 'input', 'scope': 'user', 'data_updated_at': 'null', 'key': 17480016, 'device_key': 5373468, 'product_name': 'F751', 'track_only_changes': False, 'display_name': 'Send Error Logs', 'host_sw_version': False, 'time_series': False, 'derived': False, 'app_type': None, 'recipe': None, 'value': None, 'denied_roles': [], 'ack_enabled': False, 'retention_days': 30}}, {'property': {'type': 'Property', 'name': 'SET_Send_Map_Data', 'base_type': 'boolean', 'read_only': False, 'direction': 'input', 'scope': 'user', 'data_updated_at': 'null', 'key': 17480017, 'device_key': 5373468, 'product_name': 'F751', 'track_only_changes': False, 'display_name': 'Send Map Data', 'host_sw_version': False, 'time_series': False, 'derived': False, 'app_type': None, 'recipe': None, 'value': None, 'denied_roles': [], 'ack_enabled': False, 'retention_days': 30}}, {'property': {'type': 'Property', 'name': 'SET_User_Information', 'base_type': 'string', 'read_only': True, 'direction': 'output', 'scope': 'user', 'data_updated_at': 'null', 'key': 17480045, 'device_key': 5373468, 'product_name': 'F751', 'track_only_changes': False, 'display_name': 'User Information', 'host_sw_version': False, 'time_series': False, 'derived': False, 'app_type': None, 'recipe': None, 'value': None, 'denied_roles': [], 'ack_enabled': False, 'retention_days': 30}}, {'property': {'type': 'Property', 'name': 'SET_Zones', 'base_type': 'file', 'read_only': False, 'direction': 'input', 'scope': 'user', 'data_updated_at': 'null', 'key': 17480024, 'device_key': 5373468, 'product_name': 'F751', 'track_only_changes': False, 'display_name': 'Zones', 'host_sw_version': False, 'time_series': False, 'derived': False, 'app_type': None, 'recipe': None, 'value': None, 'denied_roles': [], 'ack_enabled': False, 'retention_days': 30}}, {'property': {'type': 'Property', 'name': 'WiFiModuleSerialNumber', 'base_type': 'string', 'read_only': True, 'direction': 'output', 'scope': 'user', 'data_updated_at': 'null', 'key': 17474420, 'device_key': 5373468, 'product_name': 'F751', 'track_only_changes': False, 'display_name': 'WiFi Module Serial Number', 'host_sw_version': False, 'time_series': False, 'derived': False, 'app_type': None, 'recipe': None, 'value': None, 'denied_roles': [], 'ack_enabled': False, 'retention_days': 30}}]
